[
    {
        "title": "Is it worth learning JS for the future?",
        "slug": "is-it-worth-learning-js-12523"
    },
    {
        "title": "Do we really need to graduate from college to work at Startups?",
        "slug": "do-we-really-need-to-13925"
    }
]